module gitlab.com/mwasilewski/backpressure-playground

go 1.18

require (
	github.com/go-kit/kit v0.12.0
	github.com/gorilla/mux v1.8.0
	github.com/prometheus/client_golang v1.11.0
)

require (
	github.com/beorn7/perks v1.0.1 // indirect
	github.com/cespare/xxhash/v2 v2.1.2 // indirect
	github.com/go-kit/log v0.2.0 // indirect
	github.com/go-logfmt/logfmt v0.5.1 // indirect
	github.com/golang/protobuf v1.5.2 // indirect
	github.com/matttproud/golang_protobuf_extensions v1.0.1 // indirect
	github.com/prometheus/client_model v0.2.0 // indirect
	github.com/prometheus/common v0.30.0 // indirect
	github.com/prometheus/procfs v0.7.3 // indirect
	golang.org/x/sys v0.0.0-20210917161153-d61c044b1678 // indirect
	google.golang.org/protobuf v1.27.1 // indirect
)
